<?xml version="1.0" encoding="utf-8"?>
<!-- Generator: Adobe Illustrator 15.1.0, SVG Export Plug-In . SVG Version: 6.00 Build 0)  -->
<!DOCTYPE svg PUBLIC "-//W3C//DTD SVG 1.0//EN" "http://www.w3.org/TR/2001/REC-SVG-20010904/DTD/svg10.dtd">
<svg version="1.0" id="Layer_1" xmlns="http://www.w3.org/2000/svg" xmlns:xlink="http://www.w3.org/1999/xlink" x="0px" y="0px"
	 width="24px" height="24px" viewBox="0 0 24 24" enable-background="new 0 0 24 24" xml:space="preserve">
<g>
	<rect x="12.5" y="16" fill="#244A9A" width="4.5" height="3"/>
	<rect x="7" y="16" fill="#244A9A" width="4.5" height="3"/>
	<rect x="12.5" y="12" fill="#244A9A" width="4.5" height="3"/>
	<rect x="7" y="12" fill="#244A9A" width="4.5" height="3"/>
	<path fill="#244A9A" d="M0,23.5C0,23.776,0.224,24,0.5,24h23c0.275,0,0.5-0.224,0.5-0.5V8H0V23.5z M2.5,16
		C2.224,16,2,15.776,2,15.5S2.224,15,2.5,15H6v-3H2.5C2.224,12,2,11.776,2,11.5S2.224,11,2.5,11H6V9.5C6,9.224,6.224,9,6.5,9
		S7,9.224,7,9.5V11h4.5V9.5C11.5,9.224,11.724,9,12,9c0.275,0,0.5,0.224,0.5,0.5V11H17V9.5C17,9.224,17.224,9,17.5,9
		C17.775,9,18,9.224,18,9.5V11h3.5c0.275,0,0.5,0.224,0.5,0.5S21.775,12,21.5,12H18v3h3.5c0.275,0,0.5,0.224,0.5,0.5
		S21.775,16,21.5,16H18v3h3.5c0.275,0,0.5,0.224,0.5,0.5S21.775,20,21.5,20H18v1.5c0,0.276-0.225,0.5-0.5,0.5
		c-0.276,0-0.5-0.224-0.5-0.5V20h-4.5v1.5c0,0.276-0.225,0.5-0.5,0.5c-0.276,0-0.5-0.224-0.5-0.5V20H7v1.5C7,21.776,6.775,22,6.5,22
		S6,21.776,6,21.5V20H2.5C2.224,20,2,19.776,2,19.5S2.224,19,2.5,19H6v-3H2.5z"/>
	<path fill="#244A9A" d="M23.5,2H20V0.5C20,0.224,19.775,0,19.5,0h-3C16.224,0,16,0.224,16,0.5V2H8V0.5C8,0.224,7.775,0,7.5,0h-3
		C4.224,0,4,0.224,4,0.5V2H0.5C0.224,2,0,2.224,0,2.5V7h24V2.5C24,2.224,23.775,2,23.5,2z M7,4H5V1h2V4z M19,4h-2V1h2V4z"/>
</g>
</svg>
