<?xml version="1.0" encoding="utf-8"?>
<!-- Generator: Adobe Illustrator 15.1.0, SVG Export Plug-In . SVG Version: 6.00 Build 0)  -->
<!DOCTYPE svg PUBLIC "-//W3C//DTD SVG 1.1//EN" "http://www.w3.org/Graphics/SVG/1.1/DTD/svg11.dtd">
<svg version="1.1" id="Layer_1" xmlns="http://www.w3.org/2000/svg" xmlns:xlink="http://www.w3.org/1999/xlink" x="0px" y="0px"
	 width="17px" height="24px" viewBox="0 0 17 24" enable-background="new 0 0 17 24" xml:space="preserve">
<line fill="none" stroke="#BFBFBF" stroke-linecap="round" stroke-miterlimit="10" x1="16.479" y1="0.5" x2="0.479" y2="23.5"/>
</svg>
