<?xml version="1.0" encoding="utf-8"?>
<!-- Generator: Adobe Illustrator 15.1.0, SVG Export Plug-In . SVG Version: 6.00 Build 0)  -->
<!DOCTYPE svg PUBLIC "-//W3C//DTD SVG 1.0//EN" "http://www.w3.org/TR/2001/REC-SVG-20010904/DTD/svg10.dtd">
<svg version="1.0" id="Layer_1" xmlns="http://www.w3.org/2000/svg" xmlns:xlink="http://www.w3.org/1999/xlink" x="0px" y="0px"
	 width="24px" height="24px" viewBox="0 0 24 24" enable-background="new 0 0 24 24" xml:space="preserve">
<path fill="#244A9A" d="M12.031,0.008c-6.617,0-12,5.383-12,12s5.383,12,12,12s12-5.383,12-12S18.647,0.008,12.031,0.008z
	 M17.899,17.846c-0.099,0.107-0.233,0.162-0.369,0.162c-0.12,0-0.241-0.043-0.337-0.131l-6-5.5
	c-0.103-0.096-0.162-0.229-0.162-0.369v-5.5c0-0.276,0.224-0.5,0.5-0.5s0.5,0.224,0.5,0.5v5.28l5.838,5.351
	C18.072,17.326,18.086,17.643,17.899,17.846z"/>
</svg>
